…
```r
wine<-wine%>%select(-X1)
```

## Rzeczy naj - funkcja top_n


```r
wine%>%top_n(n=20,wt=-price)%>%
  arrange(-points)%>%
  select(title,country,points,price)
```

```
## # A tibble: 54 x 4
##    title                                              country points price
##    <chr>                                              <fct>    <int> <dbl>
##  1 In Situ 2008 Reserva Sauvignon Blanc (Aconcagua V~ Chile       87     5
##  2 Mancan NV Fizz Sparkling (California)              US          87     5
##  3 Anna Spinato NV Mini  (Prosecco)                   Italy       86     5
##  4 Bandit NV Merlot (California)                      US          86     4
##  5 Earth's Harvest 2013 Merlot (California)           US          86     5
##  6 Cramele Recas 2011 UnWineD Pinot Grigio (Viile Ti~ Romania     86     4
##  7 Felix Solis 2013 Flirty Bird Syrah (Vino de la Ti~ Spain       85     4
##  8 Earth's Harvest 2014 Organic Grapes Chardonnay (C~ US          85     5
##  9 Dancing Coyote 2015 White (Clarksburg)             US          85     4
## 10 Gallo Family Vineyards NV Twin Valley Pinot Grigi~ US          85     5
## # ... with 44 more rows
```
…
## 5 najgorszych drogich win


```r
wine%>%
  top_n(n=100, wt=price)%>%
  arrange(points)
```

```
## # A tibble: 100 x 13
##    country description designation points price province region_1 region_2
##    <fct>   <chr>       <fct>        <int> <dbl> <fct>    <fct>    <fct>   
##  1 Portug~ Sweet, sur~ Colheita        87   790 Port     <NA>     <NA>    
##  2 France  Soft Pinot~ Morogues        87   800 Loire V~ Menetou~ <NA>    
##  3 France  This ripe ~ <NA>            88  3300 Bordeaux Médoc    <NA>    
##  4 Spain   Name and r~ Unico           89   500 Norther~ Ribera ~ <NA>    
##  5 Germany Zesty on t~ Hattenheim~     90   510 Rheingau <NA>     <NA>    
##  6 Austra~ This wine ~ Hill of Gr~     91   780 South A~ Eden Va~ <NA>    
##  7 US      The nose o~ Roger Rose~     91  2013 Califor~ Arroyo ~ Central~
##  8 Italy   Aromas of ~ Sori Tildin     92   500 Piedmont Langhe   <NA>    
##  9 US      This is a ~ Intrepid        92   750 Califor~ Paso Ro~ Central~
## 10 France  In its sil~ Blanc de B~     92   675 Champag~ Champag~ <NA>    
## # ... with 90 more rows, and 5 more variables: taster_name <fct>,
## #   taster_twitter_handle <chr>, title <chr>, variety <fct>, winery <fct>
```

```r
wine%>%mutate(cena_jakosc=price/points)%>%
  arrange(-cena_jakosc)
```

```
## # A tibble: 118,840 x 14
##    country description designation points price province region_1 region_2
##    <fct>   <chr>       <fct>        <int> <dbl> <fct>    <fct>    <fct>   
##  1 France  This ripe ~ <NA>            88  3300 Bordeaux Médoc    <NA>    
##  2 France  The wine i~ <NA>            96  2500 Bordeaux Pomerol  <NA>    
##  3 France  A superb w~ <NA>            96  2500 Burgundy La Roma~ <NA>    
##  4 US      The nose o~ Roger Rose~     91  2013 Califor~ Arroyo ~ Central~
##  5 France  A wonderfu~ <NA>            96  2000 Burgundy La Roma~ <NA>    
##  6 France  This extra~ <NA>            97  2000 Bordeaux Pomerol  <NA>    
##  7 France  A massive ~ <NA>            98  1900 Bordeaux Margaux  <NA>    
##  8 France  Almost bla~ <NA>           100  1500 Bordeaux Pauillac <NA>    
##  9 France  This is th~ <NA>           100  1500 Bordeaux Saint-É~ <NA>    
## 10 France  The purest~ <NA>            96  1300 Bordeaux Pauillac <NA>    
## # ... with 118,830 more rows, and 6 more variables: taster_name <fct>,
## #   taster_twitter_handle <chr>, title <chr>, variety <fct>, winery <fct>,
## #   cena_jakosc <dbl>
```
…
## rocznik wina


```r
wine%>%
  mutate(year=str_extract(title, pattern = "\\d{4}"))
```

```
## # A tibble: 118,840 x 14
##    country description designation points price province region_1 region_2
##    <fct>   <chr>       <fct>        <int> <dbl> <fct>    <fct>    <fct>   
##  1 Italy   Aromas inc~ Vulka Bian~     87    NA Sicily ~ Etna     <NA>    
##  2 Portug~ This is ri~ Avidagos        87    15 Douro    <NA>     <NA>    
##  3 US      Tart and s~ <NA>            87    14 Oregon   Willame~ Willame~
##  4 US      Pineapple ~ Reserve La~     87    13 Michigan Lake Mi~ <NA>    
##  5 US      Much like ~ Vintner's ~     87    65 Oregon   Willame~ Willame~
##  6 Spain   Blackberry~ Ars In Vit~     87    15 Norther~ Navarra  <NA>    
##  7 Italy   Here's a b~ Belsito         87    16 Sicily ~ Vittoria <NA>    
##  8 France  This dry a~ <NA>            87    24 Alsace   Alsace   <NA>    
##  9 Germany Savory dri~ Shine           87    12 Rheinhe~ <NA>     <NA>    
## 10 France  This has g~ Les Natures     87    27 Alsace   Alsace   <NA>    
## # ... with 118,830 more rows, and 6 more variables: taster_name <fct>,
## #   taster_twitter_handle <chr>, title <chr>, variety <fct>, winery <fct>,
## #   year <chr>
```
…
